{
    "DEVICE_NAME" : "Desktop11",
    "DEVICE_UUID" : "dUE2GAfner4E9a8vJp3XTM2P47l6zF8D4li31bz1+wbxNGTYVh568iGDB9Mg3K8f8ZqioXOWNo8zkG80izKCW4==",
    "EMAIL" : "aaaa",
    "PASSWORD" : "bbbb",
    "listBanWord" : [
        {
            "roomName" : "room0",
            "banWord" : ["open","kakao","com","bit.ly","bitly.kr","gada.us","band.us",
                "goo.gl", "w888808", "band", "han.gl", "t.me", "gada.us","is.gd","band.re",
                "vo.la","bit.do","subwinner","kkaoplus","smartic","is.gd","bit.ly",
                "subwinner.kr","topleader.kr","fbceo","kakao-kmj.com","kr.pe","fx-kakao",
                "click.gl","tuney.kr","bit.do","gg.gg","vo.la","dhdhdh","wix","wixsite.com",
                "tcbend.net","AD999","is.gd","play-opy.com","fJQji","rhd","masur","kkbot",
                ".한국","샵검색"]
        },
        {
            "roomName" : "room1",
            "banWord" : ["open","kakao","com","bit.ly","bitly.kr","gada.us","band.us",
                "goo.gl", "w888808", "band", "han.gl", "t.me", "gada.us","is.gd","band.re",
                "vo.la","bit.do","subwinner","kkaoplus","smartic","is.gd","bit.ly",
                "subwinner.kr","topleader.kr","fbceo","kakao-kmj.com","kr.pe","fx-kakao",
                "click.gl","tuney.kr","bit.do","gg.gg","vo.la","dhdhdh","wix","wixsite.com",
                "tcbend.net","AD999","is.gd","play-opy.com","fJQji","rhd","masur","kkbot",
                ".한국","샵검색"]
        },
        {
            "roomName" : "room2",
            "banWord" : ["open","kakao","com","bit.ly","bitly.kr","gada.us","band.us",
                "goo.gl", "w888808", "band", "han.gl", "t.me", "gada.us","is.gd","band.re",
                "vo.la","bit.do","subwinner","kkaoplus","smartic","is.gd","bit.ly",
                "subwinner.kr","topleader.kr","fbceo","kakao-kmj.com","kr.pe","fx-kakao",
                "click.gl","tuney.kr","bit.do","gg.gg","vo.la","dhdhdh","wix","wixsite.com",
                "tcbend.net","AD999","is.gd","play-opy.com","fJQji","rhd","masur","kkbot",
                ".한국","샵검색"]
        },
        {
            "roomName" : "room3",
            "banWord" : ["open","kakao","com","bit.ly","bitly.kr","gada.us","band.us",
                "goo.gl", "w888808", "band", "han.gl", "t.me", "gada.us","is.gd","band.re",
                "vo.la","bit.do","subwinner","kkaoplus","smartic","is.gd","bit.ly",
                "subwinner.kr","topleader.kr","fbceo","kakao-kmj.com","kr.pe","fx-kakao",
                "click.gl","tuney.kr","bit.do","gg.gg","vo.la","dhdhdh","wix","wixsite.com",
                "tcbend.net","AD999","is.gd","play-opy.com","fJQji","rhd","masur","kkbot",
                ".한국","샵검색"]
        },
        {
            "roomName" : "room4",
            "banWord" : ["open","kakao","com","bit.ly","bitly.kr","gada.us","band.us",
                "goo.gl", "w888808", "band", "han.gl", "t.me", "gada.us","is.gd","band.re",
                "vo.la","bit.do","subwinner","kkaoplus","smartic","is.gd","bit.ly",
                "subwinner.kr","topleader.kr","fbceo","kakao-kmj.com","kr.pe","fx-kakao",
                "click.gl","tuney.kr","bit.do","gg.gg","vo.la","dhdhdh","wix","wixsite.com",
                "tcbend.net","AD999","is.gd","play-opy.com","fJQji","rhd","masur","kkbot",
                ".한국","샵검색"]
        }
    ],
    "Whitelist" : ["▲청개구리_김선생(김장훈 본부장)","청개구리-최나인원장 관리팀","청개구리투자클럽 - [ 이대표 ]" , "MASTER"]
}